(['C:\\Users\\Уалихан\\Advanced_Python\\new\\uo\\project_python.py'],
 ['C:\\Users\\Уалихан\\Advanced_Python\\new\\uo'],
 ['codecs'],
 ['C:\\Users\\Уалихан\\AppData\\Local\\Programs\\Python\\Python311\\Lib\\site-packages\\_pyinstaller_hooks_contrib\\hooks\\stdhooks',
  'C:\\Users\\Уалихан\\AppData\\Local\\Programs\\Python\\Python311\\Lib\\site-packages\\_pyinstaller_hooks_contrib\\hooks\\stdhooks\\__pycache__',
  'C:\\Users\\Уалихан\\AppData\\Local\\Programs\\Python\\Python311\\Lib\\site-packages\\_pyinstaller_hooks_contrib\\hooks\\rthooks',
  'C:\\Users\\Уалихан\\AppData\\Local\\Programs\\Python\\Python311\\Lib\\site-packages\\_pyinstaller_hooks_contrib\\hooks\\rthooks\\__pycache__',
  'C:\\Users\\Уалихан\\AppData\\Local\\Programs\\Python\\Python311\\Lib\\site-packages\\_pyinstaller_hooks_contrib\\hooks'],
 {},
 [],
 [],
 False,
 False,
 False,
 {},
 [],
 [],
 '3.11.3 (tags/v3.11.3:f3909b8, Apr  4 2023, 23:49:59) [MSC v.1934 64 bit '
 '(AMD64)]',
 [('pyi_rth_inspect',
   'C:\\Users\\Уалихан\\AppData\\Local\\Programs\\Python\\Python311\\Lib\\site-packages\\PyInstaller\\hooks\\rthooks\\pyi_rth_inspect.py',
   'PYSOURCE'),
  ('project_python',
   'C:\\Users\\Уалихан\\Advanced_Python\\new\\uo\\project_python.py',
   'PYSOURCE')],
 [('inspect',
   'C:\\Users\\Уалихан\\AppData\\Local\\Programs\\Python\\Python311\\Lib\\inspect.py',
   'PYMODULE'),
  ('importlib',
   'C:\\Users\\Уалихан\\AppData\\Local\\Programs\\Python\\Python311\\Lib\\importlib\\__init__.py',
   'PYMODULE'),
  ('importlib._bootstrap_external',
   'C:\\Users\\Уалихан\\AppData\\Local\\Programs\\Python\\Python311\\Lib\\importlib\\_bootstrap_external.py',
   'PYMODULE'),
  ('importlib.metadata',
   'C:\\Users\\Уалихан\\AppData\\Local\\Programs\\Python\\Python311\\Lib\\importlib\\metadata\\__init__.py',
   'PYMODULE'),
  ('typing',
   'C:\\Users\\Уалихан\\AppData\\Local\\Programs\\Python\\Python311\\Lib\\typing.py',
   'PYMODULE'),
  ('importlib.abc',
   'C:\\Users\\Уалихан\\AppData\\Local\\Programs\\Python\\Python311\\Lib\\importlib\\abc.py',
   'PYMODULE'),
  ('importlib.resources.abc',
   'C:\\Users\\Уалихан\\AppData\\Local\\Programs\\Python\\Python311\\Lib\\importlib\\resources\\abc.py',
   'PYMODULE'),
  ('importlib.resources',
   'C:\\Users\\Уалихан\\AppData\\Local\\Programs\\Python\\Python311\\Lib\\importlib\\resources\\__init__.py',
   'PYMODULE'),
  ('importlib.resources._legacy',
   'C:\\Users\\Уалихан\\AppData\\Local\\Programs\\Python\\Python311\\Lib\\importlib\\resources\\_legacy.py',
   'PYMODULE'),
  ('importlib.resources._common',
   'C:\\Users\\Уалихан\\AppData\\Local\\Programs\\Python\\Python311\\Lib\\importlib\\resources\\_common.py',
   'PYMODULE'),
  ('importlib.resources._adapters',
   'C:\\Users\\Уалихан\\AppData\\Local\\Programs\\Python\\Python311\\Lib\\importlib\\resources\\_adapters.py',
   'PYMODULE'),
  ('tempfile',
   'C:\\Users\\Уалихан\\AppData\\Local\\Programs\\Python\\Python311\\Lib\\tempfile.py',
   'PYMODULE'),
  ('random',
   'C:\\Users\\Уалихан\\AppData\\Local\\Programs\\Python\\Python311\\Lib\\random.py',
   'PYMODULE'),
  ('_strptime',
   'C:\\Users\\Уалихан\\AppData\\Local\\Programs\\Python\\Python311\\Lib\\_strptime.py',
   'PYMODULE'),
  ('datetime',
   'C:\\Users\\Уалихан\\AppData\\Local\\Programs\\Python\\Python311\\Lib\\datetime.py',
   'PYMODULE'),
  ('calendar',
   'C:\\Users\\Уалихан\\AppData\\Local\\Programs\\Python\\Python311\\Lib\\calendar.py',
   'PYMODULE'),
  ('statistics',
   'C:\\Users\\Уалихан\\AppData\\Local\\Programs\\Python\\Python311\\Lib\\statistics.py',
   'PYMODULE'),
  ('decimal',
   'C:\\Users\\Уалихан\\AppData\\Local\\Programs\\Python\\Python311\\Lib\\decimal.py',
   'PYMODULE'),
  ('_pydecimal',
   'C:\\Users\\Уалихан\\AppData\\Local\\Programs\\Python\\Python311\\Lib\\_pydecimal.py',
   'PYMODULE'),
  ('contextvars',
   'C:\\Users\\Уалихан\\AppData\\Local\\Programs\\Python\\Python311\\Lib\\contextvars.py',
   'PYMODULE'),
  ('fractions',
   'C:\\Users\\Уалихан\\AppData\\Local\\Programs\\Python\\Python311\\Lib\\fractions.py',
   'PYMODULE'),
  ('numbers',
   'C:\\Users\\Уалихан\\AppData\\Local\\Programs\\Python\\Python311\\Lib\\numbers.py',
   'PYMODULE'),
  ('hashlib',
   'C:\\Users\\Уалихан\\AppData\\Local\\Programs\\Python\\Python311\\Lib\\hashlib.py',
   'PYMODULE'),
  ('logging',
   'C:\\Users\\Уалихан\\AppData\\Local\\Programs\\Python\\Python311\\Lib\\logging\\__init__.py',
   'PYMODULE'),
  ('pickle',
   'C:\\Users\\Уалихан\\AppData\\Local\\Programs\\Python\\Python311\\Lib\\pickle.py',
   'PYMODULE'),
  ('pprint',
   'C:\\Users\\Уалихан\\AppData\\Local\\Programs\\Python\\Python311\\Lib\\pprint.py',
   'PYMODULE'),
  ('dataclasses',
   'C:\\Users\\Уалихан\\AppData\\Local\\Programs\\Python\\Python311\\Lib\\dataclasses.py',
   'PYMODULE'),
  ('copy',
   'C:\\Users\\Уалихан\\AppData\\Local\\Programs\\Python\\Python311\\Lib\\copy.py',
   'PYMODULE'),
  ('_compat_pickle',
   'C:\\Users\\Уалихан\\AppData\\Local\\Programs\\Python\\Python311\\Lib\\_compat_pickle.py',
   'PYMODULE'),
  ('struct',
   'C:\\Users\\Уалихан\\AppData\\Local\\Programs\\Python\\Python311\\Lib\\struct.py',
   'PYMODULE'),
  ('threading',
   'C:\\Users\\Уалихан\\AppData\\Local\\Programs\\Python\\Python311\\Lib\\threading.py',
   'PYMODULE'),
  ('_threading_local',
   'C:\\Users\\Уалихан\\AppData\\Local\\Programs\\Python\\Python311\\Lib\\_threading_local.py',
   'PYMODULE'),
  ('string',
   'C:\\Users\\Уалихан\\AppData\\Local\\Programs\\Python\\Python311\\Lib\\string.py',
   'PYMODULE'),
  ('bisect',
   'C:\\Users\\Уалихан\\AppData\\Local\\Programs\\Python\\Python311\\Lib\\bisect.py',
   'PYMODULE'),
  ('shutil',
   'C:\\Users\\Уалихан\\AppData\\Local\\Programs\\Python\\Python311\\Lib\\shutil.py',
   'PYMODULE'),
  ('tarfile',
   'C:\\Users\\Уалихан\\AppData\\Local\\Programs\\Python\\Python311\\Lib\\tarfile.py',
   'PYMODULE'),
  ('gzip',
   'C:\\Users\\Уалихан\\AppData\\Local\\Programs\\Python\\Python311\\Lib\\gzip.py',
   'PYMODULE'),
  ('_compression',
   'C:\\Users\\Уалихан\\AppData\\Local\\Programs\\Python\\Python311\\Lib\\_compression.py',
   'PYMODULE'),
  ('lzma',
   'C:\\Users\\Уалихан\\AppData\\Local\\Programs\\Python\\Python311\\Lib\\lzma.py',
   'PYMODULE'),
  ('bz2',
   'C:\\Users\\Уалихан\\AppData\\Local\\Programs\\Python\\Python311\\Lib\\bz2.py',
   'PYMODULE'),
  ('importlib._abc',
   'C:\\Users\\Уалихан\\AppData\\Local\\Programs\\Python\\Python311\\Lib\\importlib\\_abc.py',
   'PYMODULE'),
  ('contextlib',
   'C:\\Users\\Уалихан\\AppData\\Local\\Programs\\Python\\Python311\\Lib\\contextlib.py',
   'PYMODULE'),
  ('importlib.metadata._itertools',
   'C:\\Users\\Уалихан\\AppData\\Local\\Programs\\Python\\Python311\\Lib\\importlib\\metadata\\_itertools.py',
   'PYMODULE'),
  ('importlib.metadata._functools',
   'C:\\Users\\Уалихан\\AppData\\Local\\Programs\\Python\\Python311\\Lib\\importlib\\metadata\\_functools.py',
   'PYMODULE'),
  ('importlib.metadata._collections',
   'C:\\Users\\Уалихан\\AppData\\Local\\Programs\\Python\\Python311\\Lib\\importlib\\metadata\\_collections.py',
   'PYMODULE'),
  ('importlib.metadata._meta',
   'C:\\Users\\Уалихан\\AppData\\Local\\Programs\\Python\\Python311\\Lib\\importlib\\metadata\\_meta.py',
   'PYMODULE'),
  ('importlib.metadata._adapters',
   'C:\\Users\\Уалихан\\AppData\\Local\\Programs\\Python\\Python311\\Lib\\importlib\\metadata\\_adapters.py',
   'PYMODULE'),
  ('importlib.metadata._text',
   'C:\\Users\\Уалихан\\AppData\\Local\\Programs\\Python\\Python311\\Lib\\importlib\\metadata\\_text.py',
   'PYMODULE'),
  ('email.message',
   'C:\\Users\\Уалихан\\AppData\\Local\\Programs\\Python\\Python311\\Lib\\email\\message.py',
   'PYMODULE'),
  ('email.policy',
   'C:\\Users\\Уалихан\\AppData\\Local\\Programs\\Python\\Python311\\Lib\\email\\policy.py',
   'PYMODULE'),
  ('email.contentmanager',
   'C:\\Users\\Уалихан\\AppData\\Local\\Programs\\Python\\Python311\\Lib\\email\\contentmanager.py',
   'PYMODULE'),
  ('email.quoprimime',
   'C:\\Users\\Уалихан\\AppData\\Local\\Programs\\Python\\Python311\\Lib\\email\\quoprimime.py',
   'PYMODULE'),
  ('email.headerregistry',
   'C:\\Users\\Уалихан\\AppData\\Local\\Programs\\Python\\Python311\\Lib\\email\\headerregistry.py',
   'PYMODULE'),
  ('email._header_value_parser',
   'C:\\Users\\Уалихан\\AppData\\Local\\Programs\\Python\\Python311\\Lib\\email\\_header_value_parser.py',
   'PYMODULE'),
  ('email.iterators',
   'C:\\Users\\Уалихан\\AppData\\Local\\Programs\\Python\\Python311\\Lib\\email\\iterators.py',
   'PYMODULE'),
  ('email.generator',
   'C:\\Users\\Уалихан\\AppData\\Local\\Programs\\Python\\Python311\\Lib\\email\\generator.py',
   'PYMODULE'),
  ('email._encoded_words',
   'C:\\Users\\Уалихан\\AppData\\Local\\Programs\\Python\\Python311\\Lib\\email\\_encoded_words.py',
   'PYMODULE'),
  ('base64',
   'C:\\Users\\Уалихан\\AppData\\Local\\Programs\\Python\\Python311\\Lib\\base64.py',
   'PYMODULE'),
  ('getopt',
   'C:\\Users\\Уалихан\\AppData\\Local\\Programs\\Python\\Python311\\Lib\\getopt.py',
   'PYMODULE'),
  ('gettext',
   'C:\\Users\\Уалихан\\AppData\\Local\\Programs\\Python\\Python311\\Lib\\gettext.py',
   'PYMODULE'),
  ('email.charset',
   'C:\\Users\\Уалихан\\AppData\\Local\\Programs\\Python\\Python311\\Lib\\email\\charset.py',
   'PYMODULE'),
  ('email.encoders',
   'C:\\Users\\Уалихан\\AppData\\Local\\Programs\\Python\\Python311\\Lib\\email\\encoders.py',
   'PYMODULE'),
  ('email.base64mime',
   'C:\\Users\\Уалихан\\AppData\\Local\\Programs\\Python\\Python311\\Lib\\email\\base64mime.py',
   'PYMODULE'),
  ('email._policybase',
   'C:\\Users\\Уалихан\\AppData\\Local\\Programs\\Python\\Python311\\Lib\\email\\_policybase.py',
   'PYMODULE'),
  ('email.header',
   'C:\\Users\\Уалихан\\AppData\\Local\\Programs\\Python\\Python311\\Lib\\email\\header.py',
   'PYMODULE'),
  ('email.errors',
   'C:\\Users\\Уалихан\\AppData\\Local\\Programs\\Python\\Python311\\Lib\\email\\errors.py',
   'PYMODULE'),
  ('email.utils',
   'C:\\Users\\Уалихан\\AppData\\Local\\Programs\\Python\\Python311\\Lib\\email\\utils.py',
   'PYMODULE'),
  ('email._parseaddr',
   'C:\\Users\\Уалихан\\AppData\\Local\\Programs\\Python\\Python311\\Lib\\email\\_parseaddr.py',
   'PYMODULE'),
  ('socket',
   'C:\\Users\\Уалихан\\AppData\\Local\\Programs\\Python\\Python311\\Lib\\socket.py',
   'PYMODULE'),
  ('selectors',
   'C:\\Users\\Уалихан\\AppData\\Local\\Programs\\Python\\Python311\\Lib\\selectors.py',
   'PYMODULE'),
  ('quopri',
   'C:\\Users\\Уалихан\\AppData\\Local\\Programs\\Python\\Python311\\Lib\\quopri.py',
   'PYMODULE'),
  ('textwrap',
   'C:\\Users\\Уалихан\\AppData\\Local\\Programs\\Python\\Python311\\Lib\\textwrap.py',
   'PYMODULE'),
  ('zipfile',
   'C:\\Users\\Уалихан\\AppData\\Local\\Programs\\Python\\Python311\\Lib\\zipfile.py',
   'PYMODULE'),
  ('py_compile',
   'C:\\Users\\Уалихан\\AppData\\Local\\Programs\\Python\\Python311\\Lib\\py_compile.py',
   'PYMODULE'),
  ('importlib.util',
   'C:\\Users\\Уалихан\\AppData\\Local\\Programs\\Python\\Python311\\Lib\\importlib\\util.py',
   'PYMODULE'),
  ('email',
   'C:\\Users\\Уалихан\\AppData\\Local\\Programs\\Python\\Python311\\Lib\\email\\__init__.py',
   'PYMODULE'),
  ('email.parser',
   'C:\\Users\\Уалихан\\AppData\\Local\\Programs\\Python\\Python311\\Lib\\email\\parser.py',
   'PYMODULE'),
  ('email.feedparser',
   'C:\\Users\\Уалихан\\AppData\\Local\\Programs\\Python\\Python311\\Lib\\email\\feedparser.py',
   'PYMODULE'),
  ('csv',
   'C:\\Users\\Уалихан\\AppData\\Local\\Programs\\Python\\Python311\\Lib\\csv.py',
   'PYMODULE'),
  ('importlib.readers',
   'C:\\Users\\Уалихан\\AppData\\Local\\Programs\\Python\\Python311\\Lib\\importlib\\readers.py',
   'PYMODULE'),
  ('importlib.resources.readers',
   'C:\\Users\\Уалихан\\AppData\\Local\\Programs\\Python\\Python311\\Lib\\importlib\\resources\\readers.py',
   'PYMODULE'),
  ('importlib.resources._itertools',
   'C:\\Users\\Уалихан\\AppData\\Local\\Programs\\Python\\Python311\\Lib\\importlib\\resources\\_itertools.py',
   'PYMODULE'),
  ('importlib._bootstrap',
   'C:\\Users\\Уалихан\\AppData\\Local\\Programs\\Python\\Python311\\Lib\\importlib\\_bootstrap.py',
   'PYMODULE'),
  ('argparse',
   'C:\\Users\\Уалихан\\AppData\\Local\\Programs\\Python\\Python311\\Lib\\argparse.py',
   'PYMODULE'),
  ('importlib.machinery',
   'C:\\Users\\Уалихан\\AppData\\Local\\Programs\\Python\\Python311\\Lib\\importlib\\machinery.py',
   'PYMODULE'),
  ('dis',
   'C:\\Users\\Уалихан\\AppData\\Local\\Programs\\Python\\Python311\\Lib\\dis.py',
   'PYMODULE'),
  ('opcode',
   'C:\\Users\\Уалихан\\AppData\\Local\\Programs\\Python\\Python311\\Lib\\opcode.py',
   'PYMODULE'),
  ('ast',
   'C:\\Users\\Уалихан\\AppData\\Local\\Programs\\Python\\Python311\\Lib\\ast.py',
   'PYMODULE'),
  ('stringprep',
   'C:\\Users\\Уалихан\\AppData\\Local\\Programs\\Python\\Python311\\Lib\\stringprep.py',
   'PYMODULE'),
  ('getpass',
   'C:\\Users\\Уалихан\\AppData\\Local\\Programs\\Python\\Python311\\Lib\\getpass.py',
   'PYMODULE'),
  ('nturl2path',
   'C:\\Users\\Уалихан\\AppData\\Local\\Programs\\Python\\Python311\\Lib\\nturl2path.py',
   'PYMODULE'),
  ('ftplib',
   'C:\\Users\\Уалихан\\AppData\\Local\\Programs\\Python\\Python311\\Lib\\ftplib.py',
   'PYMODULE'),
  ('netrc',
   'C:\\Users\\Уалихан\\AppData\\Local\\Programs\\Python\\Python311\\Lib\\netrc.py',
   'PYMODULE'),
  ('shlex',
   'C:\\Users\\Уалихан\\AppData\\Local\\Programs\\Python\\Python311\\Lib\\shlex.py',
   'PYMODULE'),
  ('mimetypes',
   'C:\\Users\\Уалихан\\AppData\\Local\\Programs\\Python\\Python311\\Lib\\mimetypes.py',
   'PYMODULE'),
  ('http.cookiejar',
   'C:\\Users\\Уалихан\\AppData\\Local\\Programs\\Python\\Python311\\Lib\\http\\cookiejar.py',
   'PYMODULE'),
  ('http',
   'C:\\Users\\Уалихан\\AppData\\Local\\Programs\\Python\\Python311\\Lib\\http\\__init__.py',
   'PYMODULE'),
  ('ssl',
   'C:\\Users\\Уалихан\\AppData\\Local\\Programs\\Python\\Python311\\Lib\\ssl.py',
   'PYMODULE'),
  ('http.client',
   'C:\\Users\\Уалихан\\AppData\\Local\\Programs\\Python\\Python311\\Lib\\http\\client.py',
   'PYMODULE'),
  ('_py_abc',
   'C:\\Users\\Уалихан\\AppData\\Local\\Programs\\Python\\Python311\\Lib\\_py_abc.py',
   'PYMODULE'),
  ('tracemalloc',
   'C:\\Users\\Уалихан\\AppData\\Local\\Programs\\Python\\Python311\\Lib\\tracemalloc.py',
   'PYMODULE'),
  ('gitlab',
   'C:\\Users\\Уалихан\\AppData\\Local\\Programs\\Python\\Python311\\Lib\\site-packages\\gitlab\\__init__.py',
   'PYMODULE'),
  ('gitlab.exceptions',
   'C:\\Users\\Уалихан\\AppData\\Local\\Programs\\Python\\Python311\\Lib\\site-packages\\gitlab\\exceptions.py',
   'PYMODULE'),
  ('gitlab.client',
   'C:\\Users\\Уалихан\\AppData\\Local\\Programs\\Python\\Python311\\Lib\\site-packages\\gitlab\\client.py',
   'PYMODULE'),
  ('gitlab.v4.objects',
   'C:\\Users\\Уалихан\\AppData\\Local\\Programs\\Python\\Python311\\Lib\\site-packages\\gitlab\\v4\\objects\\__init__.py',
   'PYMODULE'),
  ('gitlab.v4.objects.wikis',
   'C:\\Users\\Уалихан\\AppData\\Local\\Programs\\Python\\Python311\\Lib\\site-packages\\gitlab\\v4\\objects\\wikis.py',
   'PYMODULE'),
  ('gitlab.mixins',
   'C:\\Users\\Уалихан\\AppData\\Local\\Programs\\Python\\Python311\\Lib\\site-packages\\gitlab\\mixins.py',
   'PYMODULE'),
  ('gitlab.base',
   'C:\\Users\\Уалихан\\AppData\\Local\\Programs\\Python\\Python311\\Lib\\site-packages\\gitlab\\base.py',
   'PYMODULE'),
  ('json',
   'C:\\Users\\Уалихан\\AppData\\Local\\Programs\\Python\\Python311\\Lib\\json\\__init__.py',
   'PYMODULE'),
  ('json.encoder',
   'C:\\Users\\Уалихан\\AppData\\Local\\Programs\\Python\\Python311\\Lib\\json\\encoder.py',
   'PYMODULE'),
  ('json.decoder',
   'C:\\Users\\Уалихан\\AppData\\Local\\Programs\\Python\\Python311\\Lib\\json\\decoder.py',
   'PYMODULE'),
  ('json.scanner',
   'C:\\Users\\Уалихан\\AppData\\Local\\Programs\\Python\\Python311\\Lib\\json\\scanner.py',
   'PYMODULE'),
  ('gitlab.v4.objects.variables',
   'C:\\Users\\Уалихан\\AppData\\Local\\Programs\\Python\\Python311\\Lib\\site-packages\\gitlab\\v4\\objects\\variables.py',
   'PYMODULE'),
  ('gitlab.v4.objects.users',
   'C:\\Users\\Уалихан\\AppData\\Local\\Programs\\Python\\Python311\\Lib\\site-packages\\gitlab\\v4\\objects\\users.py',
   'PYMODULE'),
  ('gitlab.v4.objects.triggers',
   'C:\\Users\\Уалихан\\AppData\\Local\\Programs\\Python\\Python311\\Lib\\site-packages\\gitlab\\v4\\objects\\triggers.py',
   'PYMODULE'),
  ('gitlab.v4.objects.topics',
   'C:\\Users\\Уалихан\\AppData\\Local\\Programs\\Python\\Python311\\Lib\\site-packages\\gitlab\\v4\\objects\\topics.py',
   'PYMODULE'),
  ('gitlab.v4.objects.todos',
   'C:\\Users\\Уалихан\\AppData\\Local\\Programs\\Python\\Python311\\Lib\\site-packages\\gitlab\\v4\\objects\\todos.py',
   'PYMODULE'),
  ('gitlab.v4.objects.templates',
   'C:\\Users\\Уалихан\\AppData\\Local\\Programs\\Python\\Python311\\Lib\\site-packages\\gitlab\\v4\\objects\\templates.py',
   'PYMODULE'),
  ('gitlab.v4.objects.tags',
   'C:\\Users\\Уалихан\\AppData\\Local\\Programs\\Python\\Python311\\Lib\\site-packages\\gitlab\\v4\\objects\\tags.py',
   'PYMODULE'),
  ('gitlab.v4.objects.statistics',
   'C:\\Users\\Уалихан\\AppData\\Local\\Programs\\Python\\Python311\\Lib\\site-packages\\gitlab\\v4\\objects\\statistics.py',
   'PYMODULE'),
  ('gitlab.v4.objects.snippets',
   'C:\\Users\\Уалихан\\AppData\\Local\\Programs\\Python\\Python311\\Lib\\site-packages\\gitlab\\v4\\objects\\snippets.py',
   'PYMODULE'),
  ('gitlab.v4.objects.sidekiq',
   'C:\\Users\\Уалихан\\AppData\\Local\\Programs\\Python\\Python311\\Lib\\site-packages\\gitlab\\v4\\objects\\sidekiq.py',
   'PYMODULE'),
  ('gitlab.v4.objects.settings',
   'C:\\Users\\Уалихан\\AppData\\Local\\Programs\\Python\\Python311\\Lib\\site-packages\\gitlab\\v4\\objects\\settings.py',
   'PYMODULE'),
  ('gitlab.v4.objects.secure_files',
   'C:\\Users\\Уалихан\\AppData\\Local\\Programs\\Python\\Python311\\Lib\\site-packages\\gitlab\\v4\\objects\\secure_files.py',
   'PYMODULE'),
  ('gitlab.v4.objects.runners',
   'C:\\Users\\Уалихан\\AppData\\Local\\Programs\\Python\\Python311\\Lib\\site-packages\\gitlab\\v4\\objects\\runners.py',
   'PYMODULE'),
  ('gitlab.v4.objects.resource_groups',
   'C:\\Users\\Уалихан\\AppData\\Local\\Programs\\Python\\Python311\\Lib\\site-packages\\gitlab\\v4\\objects\\resource_groups.py',
   'PYMODULE'),
  ('gitlab.v4.objects.repositories',
   'C:\\Users\\Уалихан\\AppData\\Local\\Programs\\Python\\Python311\\Lib\\site-packages\\gitlab\\v4\\objects\\repositories.py',
   'PYMODULE'),
  ('gitlab.v4.objects.releases',
   'C:\\Users\\Уалихан\\AppData\\Local\\Programs\\Python\\Python311\\Lib\\site-packages\\gitlab\\v4\\objects\\releases.py',
   'PYMODULE'),
  ('gitlab.v4.objects.push_rules',
   'C:\\Users\\Уалихан\\AppData\\Local\\Programs\\Python\\Python311\\Lib\\site-packages\\gitlab\\v4\\objects\\push_rules.py',
   'PYMODULE'),
  ('gitlab.v4.objects.projects',
   'C:\\Users\\Уалихан\\AppData\\Local\\Programs\\Python\\Python311\\Lib\\site-packages\\gitlab\\v4\\objects\\projects.py',
   'PYMODULE'),
  ('gitlab.v4.objects.project_access_tokens',
   'C:\\Users\\Уалихан\\AppData\\Local\\Programs\\Python\\Python311\\Lib\\site-packages\\gitlab\\v4\\objects\\project_access_tokens.py',
   'PYMODULE'),
  ('gitlab.v4.objects.pipelines',
   'C:\\Users\\Уалихан\\AppData\\Local\\Programs\\Python\\Python311\\Lib\\site-packages\\gitlab\\v4\\objects\\pipelines.py',
   'PYMODULE'),
  ('gitlab.v4.objects.personal_access_tokens',
   'C:\\Users\\Уалихан\\AppData\\Local\\Programs\\Python\\Python311\\Lib\\site-packages\\gitlab\\v4\\objects\\personal_access_tokens.py',
   'PYMODULE'),
  ('gitlab.v4.objects.pages',
   'C:\\Users\\Уалихан\\AppData\\Local\\Programs\\Python\\Python311\\Lib\\site-packages\\gitlab\\v4\\objects\\pages.py',
   'PYMODULE'),
  ('gitlab.v4.objects.packages',
   'C:\\Users\\Уалихан\\AppData\\Local\\Programs\\Python\\Python311\\Lib\\site-packages\\gitlab\\v4\\objects\\packages.py',
   'PYMODULE'),
  ('gitlab.v4.objects.notification_settings',
   'C:\\Users\\Уалихан\\AppData\\Local\\Programs\\Python\\Python311\\Lib\\site-packages\\gitlab\\v4\\objects\\notification_settings.py',
   'PYMODULE'),
  ('gitlab.v4.objects.notes',
   'C:\\Users\\Уалихан\\AppData\\Local\\Programs\\Python\\Python311\\Lib\\site-packages\\gitlab\\v4\\objects\\notes.py',
   'PYMODULE'),
  ('gitlab.v4.objects.namespaces',
   'C:\\Users\\Уалихан\\AppData\\Local\\Programs\\Python\\Python311\\Lib\\site-packages\\gitlab\\v4\\objects\\namespaces.py',
   'PYMODULE'),
  ('gitlab.v4.objects.milestones',
   'C:\\Users\\Уалихан\\AppData\\Local\\Programs\\Python\\Python311\\Lib\\site-packages\\gitlab\\v4\\objects\\milestones.py',
   'PYMODULE'),
  ('gitlab.v4.objects.merge_trains',
   'C:\\Users\\Уалихан\\AppData\\Local\\Programs\\Python\\Python311\\Lib\\site-packages\\gitlab\\v4\\objects\\merge_trains.py',
   'PYMODULE'),
  ('gitlab.v4.objects.merge_requests',
   'C:\\Users\\Уалихан\\AppData\\Local\\Programs\\Python\\Python311\\Lib\\site-packages\\gitlab\\v4\\objects\\merge_requests.py',
   'PYMODULE'),
  ('gitlab.v4.objects.merge_request_approvals',
   'C:\\Users\\Уалихан\\AppData\\Local\\Programs\\Python\\Python311\\Lib\\site-packages\\gitlab\\v4\\objects\\merge_request_approvals.py',
   'PYMODULE'),
  ('gitlab.v4.objects.members',
   'C:\\Users\\Уалихан\\AppData\\Local\\Programs\\Python\\Python311\\Lib\\site-packages\\gitlab\\v4\\objects\\members.py',
   'PYMODULE'),
  ('gitlab.v4.objects.ldap',
   'C:\\Users\\Уалихан\\AppData\\Local\\Programs\\Python\\Python311\\Lib\\site-packages\\gitlab\\v4\\objects\\ldap.py',
   'PYMODULE'),
  ('gitlab.v4.objects.labels',
   'C:\\Users\\Уалихан\\AppData\\Local\\Programs\\Python\\Python311\\Lib\\site-packages\\gitlab\\v4\\objects\\labels.py',
   'PYMODULE'),
  ('gitlab.v4.objects.keys',
   'C:\\Users\\Уалихан\\AppData\\Local\\Programs\\Python\\Python311\\Lib\\site-packages\\gitlab\\v4\\objects\\keys.py',
   'PYMODULE'),
  ('gitlab.v4.objects.jobs',
   'C:\\Users\\Уалихан\\AppData\\Local\\Programs\\Python\\Python311\\Lib\\site-packages\\gitlab\\v4\\objects\\jobs.py',
   'PYMODULE'),
  ('gitlab.v4.objects.iterations',
   'C:\\Users\\Уалихан\\AppData\\Local\\Programs\\Python\\Python311\\Lib\\site-packages\\gitlab\\v4\\objects\\iterations.py',
   'PYMODULE'),
  ('gitlab.v4.objects.issues',
   'C:\\Users\\Уалихан\\AppData\\Local\\Programs\\Python\\Python311\\Lib\\site-packages\\gitlab\\v4\\objects\\issues.py',
   'PYMODULE'),
  ('gitlab.v4.objects.invitations',
   'C:\\Users\\Уалихан\\AppData\\Local\\Programs\\Python\\Python311\\Lib\\site-packages\\gitlab\\v4\\objects\\invitations.py',
   'PYMODULE'),
  ('gitlab.v4.objects.integrations',
   'C:\\Users\\Уалихан\\AppData\\Local\\Programs\\Python\\Python311\\Lib\\site-packages\\gitlab\\v4\\objects\\integrations.py',
   'PYMODULE'),
  ('gitlab.v4.objects.hooks',
   'C:\\Users\\Уалихан\\AppData\\Local\\Programs\\Python\\Python311\\Lib\\site-packages\\gitlab\\v4\\objects\\hooks.py',
   'PYMODULE'),
  ('gitlab.v4.objects.groups',
   'C:\\Users\\Уалихан\\AppData\\Local\\Programs\\Python\\Python311\\Lib\\site-packages\\gitlab\\v4\\objects\\groups.py',
   'PYMODULE'),
  ('gitlab.v4.objects.group_access_tokens',
   'C:\\Users\\Уалихан\\AppData\\Local\\Programs\\Python\\Python311\\Lib\\site-packages\\gitlab\\v4\\objects\\group_access_tokens.py',
   'PYMODULE'),
  ('gitlab.v4.objects.geo_nodes',
   'C:\\Users\\Уалихан\\AppData\\Local\\Programs\\Python\\Python311\\Lib\\site-packages\\gitlab\\v4\\objects\\geo_nodes.py',
   'PYMODULE'),
  ('gitlab.v4.objects.files',
   'C:\\Users\\Уалихан\\AppData\\Local\\Programs\\Python\\Python311\\Lib\\site-packages\\gitlab\\v4\\objects\\files.py',
   'PYMODULE'),
  ('gitlab.v4.objects.features',
   'C:\\Users\\Уалихан\\AppData\\Local\\Programs\\Python\\Python311\\Lib\\site-packages\\gitlab\\v4\\objects\\features.py',
   'PYMODULE'),
  ('gitlab.v4.objects.export_import',
   'C:\\Users\\Уалихан\\AppData\\Local\\Programs\\Python\\Python311\\Lib\\site-packages\\gitlab\\v4\\objects\\export_import.py',
   'PYMODULE'),
  ('gitlab.v4.objects.events',
   'C:\\Users\\Уалихан\\AppData\\Local\\Programs\\Python\\Python311\\Lib\\site-packages\\gitlab\\v4\\objects\\events.py',
   'PYMODULE'),
  ('gitlab.v4.objects.epics',
   'C:\\Users\\Уалихан\\AppData\\Local\\Programs\\Python\\Python311\\Lib\\site-packages\\gitlab\\v4\\objects\\epics.py',
   'PYMODULE'),
  ('gitlab.v4.objects.environments',
   'C:\\Users\\Уалихан\\AppData\\Local\\Programs\\Python\\Python311\\Lib\\site-packages\\gitlab\\v4\\objects\\environments.py',
   'PYMODULE'),
  ('gitlab.v4.objects.discussions',
   'C:\\Users\\Уалихан\\AppData\\Local\\Programs\\Python\\Python311\\Lib\\site-packages\\gitlab\\v4\\objects\\discussions.py',
   'PYMODULE'),
  ('gitlab.v4.objects.deployments',
   'C:\\Users\\Уалихан\\AppData\\Local\\Programs\\Python\\Python311\\Lib\\site-packages\\gitlab\\v4\\objects\\deployments.py',
   'PYMODULE'),
  ('gitlab.v4.objects.deploy_tokens',
   'C:\\Users\\Уалихан\\AppData\\Local\\Programs\\Python\\Python311\\Lib\\site-packages\\gitlab\\v4\\objects\\deploy_tokens.py',
   'PYMODULE'),
  ('gitlab.v4.objects.deploy_keys',
   'C:\\Users\\Уалихан\\AppData\\Local\\Programs\\Python\\Python311\\Lib\\site-packages\\gitlab\\v4\\objects\\deploy_keys.py',
   'PYMODULE'),
  ('gitlab.v4.objects.custom_attributes',
   'C:\\Users\\Уалихан\\AppData\\Local\\Programs\\Python\\Python311\\Lib\\site-packages\\gitlab\\v4\\objects\\custom_attributes.py',
   'PYMODULE'),
  ('gitlab.v4.objects.container_registry',
   'C:\\Users\\Уалихан\\AppData\\Local\\Programs\\Python\\Python311\\Lib\\site-packages\\gitlab\\v4\\objects\\container_registry.py',
   'PYMODULE'),
  ('gitlab.v4.objects.commits',
   'C:\\Users\\Уалихан\\AppData\\Local\\Programs\\Python\\Python311\\Lib\\site-packages\\gitlab\\v4\\objects\\commits.py',
   'PYMODULE'),
  ('gitlab.v4.objects.clusters',
   'C:\\Users\\Уалихан\\AppData\\Local\\Programs\\Python\\Python311\\Lib\\site-packages\\gitlab\\v4\\objects\\clusters.py',
   'PYMODULE'),
  ('gitlab.v4.objects.ci_lint',
   'C:\\Users\\Уалихан\\AppData\\Local\\Programs\\Python\\Python311\\Lib\\site-packages\\gitlab\\v4\\objects\\ci_lint.py',
   'PYMODULE'),
  ('gitlab.v4.objects.bulk_imports',
   'C:\\Users\\Уалихан\\AppData\\Local\\Programs\\Python\\Python311\\Lib\\site-packages\\gitlab\\v4\\objects\\bulk_imports.py',
   'PYMODULE'),
  ('gitlab.v4.objects.broadcast_messages',
   'C:\\Users\\Уалихан\\AppData\\Local\\Programs\\Python\\Python311\\Lib\\site-packages\\gitlab\\v4\\objects\\broadcast_messages.py',
   'PYMODULE'),
  ('gitlab.v4.objects.branches',
   'C:\\Users\\Уалихан\\AppData\\Local\\Programs\\Python\\Python311\\Lib\\site-packages\\gitlab\\v4\\objects\\branches.py',
   'PYMODULE'),
  ('gitlab.v4.objects.boards',
   'C:\\Users\\Уалихан\\AppData\\Local\\Programs\\Python\\Python311\\Lib\\site-packages\\gitlab\\v4\\objects\\boards.py',
   'PYMODULE'),
  ('gitlab.v4.objects.badges',
   'C:\\Users\\Уалихан\\AppData\\Local\\Programs\\Python\\Python311\\Lib\\site-packages\\gitlab\\v4\\objects\\badges.py',
   'PYMODULE'),
  ('gitlab.v4.objects.award_emojis',
   'C:\\Users\\Уалихан\\AppData\\Local\\Programs\\Python\\Python311\\Lib\\site-packages\\gitlab\\v4\\objects\\award_emojis.py',
   'PYMODULE'),
  ('gitlab.v4.objects.audit_events',
   'C:\\Users\\Уалихан\\AppData\\Local\\Programs\\Python\\Python311\\Lib\\site-packages\\gitlab\\v4\\objects\\audit_events.py',
   'PYMODULE'),
  ('gitlab.v4.objects.artifacts',
   'C:\\Users\\Уалихан\\AppData\\Local\\Programs\\Python\\Python311\\Lib\\site-packages\\gitlab\\v4\\objects\\artifacts.py',
   'PYMODULE'),
  ('gitlab.v4.objects.applications',
   'C:\\Users\\Уалихан\\AppData\\Local\\Programs\\Python\\Python311\\Lib\\site-packages\\gitlab\\v4\\objects\\applications.py',
   'PYMODULE'),
  ('gitlab.v4.objects.appearance',
   'C:\\Users\\Уалихан\\AppData\\Local\\Programs\\Python\\Python311\\Lib\\site-packages\\gitlab\\v4\\objects\\appearance.py',
   'PYMODULE'),
  ('gitlab.v4.objects.access_requests',
   'C:\\Users\\Уалихан\\AppData\\Local\\Programs\\Python\\Python311\\Lib\\site-packages\\gitlab\\v4\\objects\\access_requests.py',
   'PYMODULE'),
  ('gitlab.v4',
   'C:\\Users\\Уалихан\\AppData\\Local\\Programs\\Python\\Python311\\Lib\\site-packages\\gitlab\\v4\\__init__.py',
   'PYMODULE'),
  ('gitlab.v4.cli',
   'C:\\Users\\Уалихан\\AppData\\Local\\Programs\\Python\\Python311\\Lib\\site-packages\\gitlab\\v4\\cli.py',
   'PYMODULE'),
  ('gitlab.const',
   'C:\\Users\\Уалихан\\AppData\\Local\\Programs\\Python\\Python311\\Lib\\site-packages\\gitlab\\const.py',
   'PYMODULE'),
  ('requests',
   'C:\\Users\\Уалихан\\AppData\\Local\\Programs\\Python\\Python311\\Lib\\site-packages\\requests\\__init__.py',
   'PYMODULE'),
  ('requests.status_codes',
   'C:\\Users\\Уалихан\\AppData\\Local\\Programs\\Python\\Python311\\Lib\\site-packages\\requests\\status_codes.py',
   'PYMODULE'),
  ('requests.structures',
   'C:\\Users\\Уалихан\\AppData\\Local\\Programs\\Python\\Python311\\Lib\\site-packages\\requests\\structures.py',
   'PYMODULE'),
  ('requests.compat',
   'C:\\Users\\Уалихан\\AppData\\Local\\Programs\\Python\\Python311\\Lib\\site-packages\\requests\\compat.py',
   'PYMODULE'),
  ('http.cookies',
   'C:\\Users\\Уалихан\\AppData\\Local\\Programs\\Python\\Python311\\Lib\\http\\cookies.py',
   'PYMODULE'),
  ('requests.models',
   'C:\\Users\\Уалихан\\AppData\\Local\\Programs\\Python\\Python311\\Lib\\site-packages\\requests\\models.py',
   'PYMODULE'),
  ('idna',
   'C:\\Users\\Уалихан\\AppData\\Local\\Programs\\Python\\Python311\\Lib\\site-packages\\idna\\__init__.py',
   'PYMODULE'),
  ('idna.intranges',
   'C:\\Users\\Уалихан\\AppData\\Local\\Programs\\Python\\Python311\\Lib\\site-packages\\idna\\intranges.py',
   'PYMODULE'),
  ('idna.core',
   'C:\\Users\\Уалихан\\AppData\\Local\\Programs\\Python\\Python311\\Lib\\site-packages\\idna\\core.py',
   'PYMODULE'),
  ('idna.uts46data',
   'C:\\Users\\Уалихан\\AppData\\Local\\Programs\\Python\\Python311\\Lib\\site-packages\\idna\\uts46data.py',
   'PYMODULE'),
  ('idna.idnadata',
   'C:\\Users\\Уалихан\\AppData\\Local\\Programs\\Python\\Python311\\Lib\\site-packages\\idna\\idnadata.py',
   'PYMODULE'),
  ('idna.package_data',
   'C:\\Users\\Уалихан\\AppData\\Local\\Programs\\Python\\Python311\\Lib\\site-packages\\idna\\package_data.py',
   'PYMODULE'),
  ('requests.hooks',
   'C:\\Users\\Уалихан\\AppData\\Local\\Programs\\Python\\Python311\\Lib\\site-packages\\requests\\hooks.py',
   'PYMODULE'),
  ('requests.cookies',
   'C:\\Users\\Уалихан\\AppData\\Local\\Programs\\Python\\Python311\\Lib\\site-packages\\requests\\cookies.py',
   'PYMODULE'),
  ('requests.auth',
   'C:\\Users\\Уалихан\\AppData\\Local\\Programs\\Python\\Python311\\Lib\\site-packages\\requests\\auth.py',
   'PYMODULE'),
  ('requests._internal_utils',
   'C:\\Users\\Уалихан\\AppData\\Local\\Programs\\Python\\Python311\\Lib\\site-packages\\requests\\_internal_utils.py',
   'PYMODULE'),
  ('urllib3.util',
   'C:\\Users\\Уалихан\\AppData\\Local\\Programs\\Python\\Python311\\Lib\\site-packages\\urllib3\\util\\__init__.py',
   'PYMODULE'),
  ('urllib3.util.wait',
   'C:\\Users\\Уалихан\\AppData\\Local\\Programs\\Python\\Python311\\Lib\\site-packages\\urllib3\\util\\wait.py',
   'PYMODULE'),
  ('urllib3.util.url',
   'C:\\Users\\Уалихан\\AppData\\Local\\Programs\\Python\\Python311\\Lib\\site-packages\\urllib3\\util\\url.py',
   'PYMODULE'),
  ('urllib3.util.util',
   'C:\\Users\\Уалихан\\AppData\\Local\\Programs\\Python\\Python311\\Lib\\site-packages\\urllib3\\util\\util.py',
   'PYMODULE'),
  ('urllib3.util.timeout',
   'C:\\Users\\Уалихан\\AppData\\Local\\Programs\\Python\\Python311\\Lib\\site-packages\\urllib3\\util\\timeout.py',
   'PYMODULE'),
  ('urllib3.util.ssl_',
   'C:\\Users\\Уалихан\\AppData\\Local\\Programs\\Python\\Python311\\Lib\\site-packages\\urllib3\\util\\ssl_.py',
   'PYMODULE'),
  ('urllib3.util.ssltransport',
   'C:\\Users\\Уалихан\\AppData\\Local\\Programs\\Python\\Python311\\Lib\\site-packages\\urllib3\\util\\ssltransport.py',
   'PYMODULE'),
  ('hmac',
   'C:\\Users\\Уалихан\\AppData\\Local\\Programs\\Python\\Python311\\Lib\\hmac.py',
   'PYMODULE'),
  ('urllib3.util.retry',
   'C:\\Users\\Уалихан\\AppData\\Local\\Programs\\Python\\Python311\\Lib\\site-packages\\urllib3\\util\\retry.py',
   'PYMODULE'),
  ('urllib3.response',
   'C:\\Users\\Уалихан\\AppData\\Local\\Programs\\Python\\Python311\\Lib\\site-packages\\urllib3\\response.py',
   'PYMODULE'),
  ('urllib3.connection',
   'C:\\Users\\Уалихан\\AppData\\Local\\Programs\\Python\\Python311\\Lib\\site-packages\\urllib3\\connection.py',
   'PYMODULE'),
  ('urllib3.util.ssl_match_hostname',
   'C:\\Users\\Уалихан\\AppData\\Local\\Programs\\Python\\Python311\\Lib\\site-packages\\urllib3\\util\\ssl_match_hostname.py',
   'PYMODULE'),
  ('ipaddress',
   'C:\\Users\\Уалихан\\AppData\\Local\\Programs\\Python\\Python311\\Lib\\ipaddress.py',
   'PYMODULE'),
  ('urllib3._version',
   'C:\\Users\\Уалихан\\AppData\\Local\\Programs\\Python\\Python311\\Lib\\site-packages\\urllib3\\_version.py',
   'PYMODULE'),
  ('urllib3._collections',
   'C:\\Users\\Уалихан\\AppData\\Local\\Programs\\Python\\Python311\\Lib\\site-packages\\urllib3\\_collections.py',
   'PYMODULE'),
  ('urllib3._base_connection',
   'C:\\Users\\Уалихан\\AppData\\Local\\Programs\\Python\\Python311\\Lib\\site-packages\\urllib3\\_base_connection.py',
   'PYMODULE'),
  ('urllib3.connectionpool',
   'C:\\Users\\Уалихан\\AppData\\Local\\Programs\\Python\\Python311\\Lib\\site-packages\\urllib3\\connectionpool.py',
   'PYMODULE'),
  ('urllib3.util.proxy',
   'C:\\Users\\Уалихан\\AppData\\Local\\Programs\\Python\\Python311\\Lib\\site-packages\\urllib3\\util\\proxy.py',
   'PYMODULE'),
  ('urllib3._request_methods',
   'C:\\Users\\Уалихан\\AppData\\Local\\Programs\\Python\\Python311\\Lib\\site-packages\\urllib3\\_request_methods.py',
   'PYMODULE'),
  ('queue',
   'C:\\Users\\Уалихан\\AppData\\Local\\Programs\\Python\\Python311\\Lib\\queue.py',
   'PYMODULE'),
  ('urllib3.util.response',
   'C:\\Users\\Уалихан\\AppData\\Local\\Programs\\Python\\Python311\\Lib\\site-packages\\urllib3\\util\\response.py',
   'PYMODULE'),
  ('urllib3.util.request',
   'C:\\Users\\Уалихан\\AppData\\Local\\Programs\\Python\\Python311\\Lib\\site-packages\\urllib3\\util\\request.py',
   'PYMODULE'),
  ('urllib3.util.connection',
   'C:\\Users\\Уалихан\\AppData\\Local\\Programs\\Python\\Python311\\Lib\\site-packages\\urllib3\\util\\connection.py',
   'PYMODULE'),
  ('__future__',
   'C:\\Users\\Уалихан\\AppData\\Local\\Programs\\Python\\Python311\\Lib\\__future__.py',
   'PYMODULE'),
  ('urllib3.filepost',
   'C:\\Users\\Уалихан\\AppData\\Local\\Programs\\Python\\Python311\\Lib\\site-packages\\urllib3\\filepost.py',
   'PYMODULE'),
  ('urllib3.fields',
   'C:\\Users\\Уалихан\\AppData\\Local\\Programs\\Python\\Python311\\Lib\\site-packages\\urllib3\\fields.py',
   'PYMODULE'),
  ('requests.api',
   'C:\\Users\\Уалихан\\AppData\\Local\\Programs\\Python\\Python311\\Lib\\site-packages\\requests\\api.py',
   'PYMODULE'),
  ('requests.sessions',
   'C:\\Users\\Уалихан\\AppData\\Local\\Programs\\Python\\Python311\\Lib\\site-packages\\requests\\sessions.py',
   'PYMODULE'),
  ('requests.adapters',
   'C:\\Users\\Уалихан\\AppData\\Local\\Programs\\Python\\Python311\\Lib\\site-packages\\requests\\adapters.py',
   'PYMODULE'),
  ('urllib3.contrib.socks',
   'C:\\Users\\Уалихан\\AppData\\Local\\Programs\\Python\\Python311\\Lib\\site-packages\\urllib3\\contrib\\socks.py',
   'PYMODULE'),
  ('urllib3.poolmanager',
   'C:\\Users\\Уалихан\\AppData\\Local\\Programs\\Python\\Python311\\Lib\\site-packages\\urllib3\\poolmanager.py',
   'PYMODULE'),
  ('requests.__version__',
   'C:\\Users\\Уалихан\\AppData\\Local\\Programs\\Python\\Python311\\Lib\\site-packages\\requests\\__version__.py',
   'PYMODULE'),
  ('requests.utils',
   'C:\\Users\\Уалихан\\AppData\\Local\\Programs\\Python\\Python311\\Lib\\site-packages\\requests\\utils.py',
   'PYMODULE'),
  ('requests.certs',
   'C:\\Users\\Уалихан\\AppData\\Local\\Programs\\Python\\Python311\\Lib\\site-packages\\requests\\certs.py',
   'PYMODULE'),
  ('certifi',
   'C:\\Users\\Уалихан\\AppData\\Local\\Programs\\Python\\Python311\\Lib\\site-packages\\certifi\\__init__.py',
   'PYMODULE'),
  ('certifi.core',
   'C:\\Users\\Уалихан\\AppData\\Local\\Programs\\Python\\Python311\\Lib\\site-packages\\certifi\\core.py',
   'PYMODULE'),
  ('requests.packages',
   'C:\\Users\\Уалихан\\AppData\\Local\\Programs\\Python\\Python311\\Lib\\site-packages\\requests\\packages.py',
   'PYMODULE'),
  ('urllib3.exceptions',
   'C:\\Users\\Уалихан\\AppData\\Local\\Programs\\Python\\Python311\\Lib\\site-packages\\urllib3\\exceptions.py',
   'PYMODULE'),
  ('urllib3.contrib.pyopenssl',
   'C:\\Users\\Уалихан\\AppData\\Local\\Programs\\Python\\Python311\\Lib\\site-packages\\urllib3\\contrib\\pyopenssl.py',
   'PYMODULE'),
  ('urllib3.contrib',
   'C:\\Users\\Уалихан\\AppData\\Local\\Programs\\Python\\Python311\\Lib\\site-packages\\urllib3\\contrib\\__init__.py',
   'PYMODULE'),
  ('charset_normalizer',
   'C:\\Users\\Уалихан\\AppData\\Local\\Programs\\Python\\Python311\\Lib\\site-packages\\charset_normalizer\\__init__.py',
   'PYMODULE'),
  ('charset_normalizer.version',
   'C:\\Users\\Уалихан\\AppData\\Local\\Programs\\Python\\Python311\\Lib\\site-packages\\charset_normalizer\\version.py',
   'PYMODULE'),
  ('charset_normalizer.utils',
   'C:\\Users\\Уалихан\\AppData\\Local\\Programs\\Python\\Python311\\Lib\\site-packages\\charset_normalizer\\utils.py',
   'PYMODULE'),
  ('charset_normalizer.constant',
   'C:\\Users\\Уалихан\\AppData\\Local\\Programs\\Python\\Python311\\Lib\\site-packages\\charset_normalizer\\constant.py',
   'PYMODULE'),
  ('charset_normalizer.assets',
   'C:\\Users\\Уалихан\\AppData\\Local\\Programs\\Python\\Python311\\Lib\\site-packages\\charset_normalizer\\assets\\__init__.py',
   'PYMODULE'),
  ('charset_normalizer.models',
   'C:\\Users\\Уалихан\\AppData\\Local\\Programs\\Python\\Python311\\Lib\\site-packages\\charset_normalizer\\models.py',
   'PYMODULE'),
  ('charset_normalizer.cd',
   'C:\\Users\\Уалихан\\AppData\\Local\\Programs\\Python\\Python311\\Lib\\site-packages\\charset_normalizer\\cd.py',
   'PYMODULE'),
  ('charset_normalizer.legacy',
   'C:\\Users\\Уалихан\\AppData\\Local\\Programs\\Python\\Python311\\Lib\\site-packages\\charset_normalizer\\legacy.py',
   'PYMODULE'),
  ('charset_normalizer.api',
   'C:\\Users\\Уалихан\\AppData\\Local\\Programs\\Python\\Python311\\Lib\\site-packages\\charset_normalizer\\api.py',
   'PYMODULE'),
  ('requests.exceptions',
   'C:\\Users\\Уалихан\\AppData\\Local\\Programs\\Python\\Python311\\Lib\\site-packages\\requests\\exceptions.py',
   'PYMODULE'),
  ('urllib3',
   'C:\\Users\\Уалихан\\AppData\\Local\\Programs\\Python\\Python311\\Lib\\site-packages\\urllib3\\__init__.py',
   'PYMODULE'),
  ('gitlab.cli',
   'C:\\Users\\Уалихан\\AppData\\Local\\Programs\\Python\\Python311\\Lib\\site-packages\\gitlab\\cli.py',
   'PYMODULE'),
  ('gitlab._backends',
   'C:\\Users\\Уалихан\\AppData\\Local\\Programs\\Python\\Python311\\Lib\\site-packages\\gitlab\\_backends\\__init__.py',
   'PYMODULE'),
  ('gitlab._backends.requests_backend',
   'C:\\Users\\Уалихан\\AppData\\Local\\Programs\\Python\\Python311\\Lib\\site-packages\\gitlab\\_backends\\requests_backend.py',
   'PYMODULE'),
  ('requests_toolbelt.multipart.encoder',
   'C:\\Users\\Уалихан\\AppData\\Local\\Programs\\Python\\Python311\\Lib\\site-packages\\requests_toolbelt\\multipart\\encoder.py',
   'PYMODULE'),
  ('requests_toolbelt.multipart',
   'C:\\Users\\Уалихан\\AppData\\Local\\Programs\\Python\\Python311\\Lib\\site-packages\\requests_toolbelt\\multipart\\__init__.py',
   'PYMODULE'),
  ('requests_toolbelt',
   'C:\\Users\\Уалихан\\AppData\\Local\\Programs\\Python\\Python311\\Lib\\site-packages\\requests_toolbelt\\__init__.py',
   'PYMODULE'),
  ('requests_toolbelt.utils.user_agent',
   'C:\\Users\\Уалихан\\AppData\\Local\\Programs\\Python\\Python311\\Lib\\site-packages\\requests_toolbelt\\utils\\user_agent.py',
   'PYMODULE'),
  ('requests_toolbelt.utils',
   'C:\\Users\\Уалихан\\AppData\\Local\\Programs\\Python\\Python311\\Lib\\site-packages\\requests_toolbelt\\utils\\__init__.py',
   'PYMODULE'),
  ('platform',
   'C:\\Users\\Уалихан\\AppData\\Local\\Programs\\Python\\Python311\\Lib\\platform.py',
   'PYMODULE'),
  ('subprocess',
   'C:\\Users\\Уалихан\\AppData\\Local\\Programs\\Python\\Python311\\Lib\\subprocess.py',
   'PYMODULE'),
  ('signal',
   'C:\\Users\\Уалихан\\AppData\\Local\\Programs\\Python\\Python311\\Lib\\signal.py',
   'PYMODULE'),
  ('requests_toolbelt.streaming_iterator',
   'C:\\Users\\Уалихан\\AppData\\Local\\Programs\\Python\\Python311\\Lib\\site-packages\\requests_toolbelt\\streaming_iterator.py',
   'PYMODULE'),
  ('requests_toolbelt.auth.guess',
   'C:\\Users\\Уалихан\\AppData\\Local\\Programs\\Python\\Python311\\Lib\\site-packages\\requests_toolbelt\\auth\\guess.py',
   'PYMODULE'),
  ('requests_toolbelt.auth.http_proxy_digest',
   'C:\\Users\\Уалихан\\AppData\\Local\\Programs\\Python\\Python311\\Lib\\site-packages\\requests_toolbelt\\auth\\http_proxy_digest.py',
   'PYMODULE'),
  ('requests_toolbelt.auth._digest_auth_compat',
   'C:\\Users\\Уалихан\\AppData\\Local\\Programs\\Python\\Python311\\Lib\\site-packages\\requests_toolbelt\\auth\\_digest_auth_compat.py',
   'PYMODULE'),
  ('requests_toolbelt.auth',
   'C:\\Users\\Уалихан\\AppData\\Local\\Programs\\Python\\Python311\\Lib\\site-packages\\requests_toolbelt\\auth\\__init__.py',
   'PYMODULE'),
  ('requests_toolbelt.adapters',
   'C:\\Users\\Уалихан\\AppData\\Local\\Programs\\Python\\Python311\\Lib\\site-packages\\requests_toolbelt\\adapters\\__init__.py',
   'PYMODULE'),
  ('requests_toolbelt.adapters.source',
   'C:\\Users\\Уалихан\\AppData\\Local\\Programs\\Python\\Python311\\Lib\\site-packages\\requests_toolbelt\\adapters\\source.py',
   'PYMODULE'),
  ('requests_toolbelt.adapters.ssl',
   'C:\\Users\\Уалихан\\AppData\\Local\\Programs\\Python\\Python311\\Lib\\site-packages\\requests_toolbelt\\adapters\\ssl.py',
   'PYMODULE'),
  ('requests_toolbelt.multipart.decoder',
   'C:\\Users\\Уалихан\\AppData\\Local\\Programs\\Python\\Python311\\Lib\\site-packages\\requests_toolbelt\\multipart\\decoder.py',
   'PYMODULE'),
  ('requests_toolbelt._compat',
   'C:\\Users\\Уалихан\\AppData\\Local\\Programs\\Python\\Python311\\Lib\\site-packages\\requests_toolbelt\\_compat.py',
   'PYMODULE'),
  ('uuid',
   'C:\\Users\\Уалихан\\AppData\\Local\\Programs\\Python\\Python311\\Lib\\uuid.py',
   'PYMODULE'),
  ('gitlab._backends.protocol',
   'C:\\Users\\Уалихан\\AppData\\Local\\Programs\\Python\\Python311\\Lib\\site-packages\\gitlab\\_backends\\protocol.py',
   'PYMODULE'),
  ('gitlab._version',
   'C:\\Users\\Уалихан\\AppData\\Local\\Programs\\Python\\Python311\\Lib\\site-packages\\gitlab\\_version.py',
   'PYMODULE'),
  ('gitlab.utils',
   'C:\\Users\\Уалихан\\AppData\\Local\\Programs\\Python\\Python311\\Lib\\site-packages\\gitlab\\utils.py',
   'PYMODULE'),
  ('gitlab.types',
   'C:\\Users\\Уалихан\\AppData\\Local\\Programs\\Python\\Python311\\Lib\\site-packages\\gitlab\\types.py',
   'PYMODULE'),
  ('gitlab.config',
   'C:\\Users\\Уалихан\\AppData\\Local\\Programs\\Python\\Python311\\Lib\\site-packages\\gitlab\\config.py',
   'PYMODULE'),
  ('configparser',
   'C:\\Users\\Уалихан\\AppData\\Local\\Programs\\Python\\Python311\\Lib\\configparser.py',
   'PYMODULE')],
 [('python311.dll',
   'C:\\Users\\Уалихан\\AppData\\Local\\Programs\\Python\\Python311\\python311.dll',
   'BINARY'),
  ('VCRUNTIME140.dll',
   'C:\\Users\\Уалихан\\AppData\\Local\\Programs\\Python\\Python311\\VCRUNTIME140.dll',
   'BINARY'),
  ('_decimal.pyd',
   'C:\\Users\\Уалихан\\AppData\\Local\\Programs\\Python\\Python311\\DLLs\\_decimal.pyd',
   'EXTENSION'),
  ('_hashlib.pyd',
   'C:\\Users\\Уалихан\\AppData\\Local\\Programs\\Python\\Python311\\DLLs\\_hashlib.pyd',
   'EXTENSION'),
  ('_lzma.pyd',
   'C:\\Users\\Уалихан\\AppData\\Local\\Programs\\Python\\Python311\\DLLs\\_lzma.pyd',
   'EXTENSION'),
  ('_bz2.pyd',
   'C:\\Users\\Уалихан\\AppData\\Local\\Programs\\Python\\Python311\\DLLs\\_bz2.pyd',
   'EXTENSION'),
  ('select.pyd',
   'C:\\Users\\Уалихан\\AppData\\Local\\Programs\\Python\\Python311\\DLLs\\select.pyd',
   'EXTENSION'),
  ('_socket.pyd',
   'C:\\Users\\Уалихан\\AppData\\Local\\Programs\\Python\\Python311\\DLLs\\_socket.pyd',
   'EXTENSION'),
  ('unicodedata.pyd',
   'C:\\Users\\Уалихан\\AppData\\Local\\Programs\\Python\\Python311\\DLLs\\unicodedata.pyd',
   'EXTENSION'),
  ('_ssl.pyd',
   'C:\\Users\\Уалихан\\AppData\\Local\\Programs\\Python\\Python311\\DLLs\\_ssl.pyd',
   'EXTENSION'),
  ('_queue.pyd',
   'C:\\Users\\Уалихан\\AppData\\Local\\Programs\\Python\\Python311\\DLLs\\_queue.pyd',
   'EXTENSION'),
  ('charset_normalizer\\md__mypyc.cp311-win_amd64.pyd',
   'C:\\Users\\Уалихан\\AppData\\Local\\Programs\\Python\\Python311\\Lib\\site-packages\\charset_normalizer\\md__mypyc.cp311-win_amd64.pyd',
   'EXTENSION'),
  ('charset_normalizer\\md.cp311-win_amd64.pyd',
   'C:\\Users\\Уалихан\\AppData\\Local\\Programs\\Python\\Python311\\Lib\\site-packages\\charset_normalizer\\md.cp311-win_amd64.pyd',
   'EXTENSION'),
  ('_uuid.pyd',
   'C:\\Users\\Уалихан\\AppData\\Local\\Programs\\Python\\Python311\\DLLs\\_uuid.pyd',
   'EXTENSION'),
  ('libcrypto-1_1.dll',
   'C:\\Users\\Уалихан\\AppData\\Local\\Programs\\Python\\Python311\\DLLs\\libcrypto-1_1.dll',
   'BINARY'),
  ('libssl-1_1.dll',
   'C:\\Users\\Уалихан\\AppData\\Local\\Programs\\Python\\Python311\\DLLs\\libssl-1_1.dll',
   'BINARY')],
 [],
 [],
 [('base_library.zip',
   'C:\\Users\\Уалихан\\Advanced_Python\\new\\uo\\build\\project_python\\base_library.zip',
   'DATA'),
  ('certifi\\py.typed',
   'C:\\Users\\Уалихан\\AppData\\Local\\Programs\\Python\\Python311\\Lib\\site-packages\\certifi\\py.typed',
   'DATA'),
  ('certifi\\cacert.pem',
   'C:\\Users\\Уалихан\\AppData\\Local\\Programs\\Python\\Python311\\Lib\\site-packages\\certifi\\cacert.pem',
   'DATA'),
  ('gitlab\\py.typed',
   'C:\\Users\\Уалихан\\AppData\\Local\\Programs\\Python\\Python311\\Lib\\site-packages\\gitlab\\py.typed',
   'DATA')],
 [])
