('C:\\Users\\Уалихан\\Advanced_Python\\new\\uo\\build\\project_python\\project_python.pkg',
 {'BINARY': True,
  'DATA': True,
  'EXECUTABLE': True,
  'EXTENSION': True,
  'PYMODULE': True,
  'PYSOURCE': True,
  'PYZ': False,
  'SPLASH': True},
 [('PYZ-00.pyz',
   'C:\\Users\\Уалихан\\Advanced_Python\\new\\uo\\build\\project_python\\PYZ-00.pyz',
   'PYZ'),
  ('struct',
   'C:\\Users\\Уалихан\\Advanced_Python\\new\\uo\\build\\project_python\\localpycs\\struct.pyc',
   'PYMODULE'),
  ('pyimod01_archive',
   'C:\\Users\\Уалихан\\Advanced_Python\\new\\uo\\build\\project_python\\localpycs\\pyimod01_archive.pyc',
   'PYMODULE'),
  ('pyimod02_importers',
   'C:\\Users\\Уалихан\\Advanced_Python\\new\\uo\\build\\project_python\\localpycs\\pyimod02_importers.pyc',
   'PYMODULE'),
  ('pyimod03_ctypes',
   'C:\\Users\\Уалихан\\Advanced_Python\\new\\uo\\build\\project_python\\localpycs\\pyimod03_ctypes.pyc',
   'PYMODULE'),
  ('pyimod04_pywin32',
   'C:\\Users\\Уалихан\\Advanced_Python\\new\\uo\\build\\project_python\\localpycs\\pyimod04_pywin32.pyc',
   'PYMODULE'),
  ('pyiboot01_bootstrap',
   'C:\\Users\\Уалихан\\AppData\\Local\\Programs\\Python\\Python311\\Lib\\site-packages\\PyInstaller\\loader\\pyiboot01_bootstrap.py',
   'PYSOURCE'),
  ('pyi_rth_inspect',
   'C:\\Users\\Уалихан\\AppData\\Local\\Programs\\Python\\Python311\\Lib\\site-packages\\PyInstaller\\hooks\\rthooks\\pyi_rth_inspect.py',
   'PYSOURCE'),
  ('project_python',
   'C:\\Users\\Уалихан\\Advanced_Python\\new\\uo\\project_python.py',
   'PYSOURCE'),
  ('python311.dll',
   'C:\\Users\\Уалихан\\AppData\\Local\\Programs\\Python\\Python311\\python311.dll',
   'BINARY'),
  ('VCRUNTIME140.dll',
   'C:\\Users\\Уалихан\\AppData\\Local\\Programs\\Python\\Python311\\VCRUNTIME140.dll',
   'BINARY'),
  ('_decimal.pyd',
   'C:\\Users\\Уалихан\\AppData\\Local\\Programs\\Python\\Python311\\DLLs\\_decimal.pyd',
   'EXTENSION'),
  ('_hashlib.pyd',
   'C:\\Users\\Уалихан\\AppData\\Local\\Programs\\Python\\Python311\\DLLs\\_hashlib.pyd',
   'EXTENSION'),
  ('_lzma.pyd',
   'C:\\Users\\Уалихан\\AppData\\Local\\Programs\\Python\\Python311\\DLLs\\_lzma.pyd',
   'EXTENSION'),
  ('_bz2.pyd',
   'C:\\Users\\Уалихан\\AppData\\Local\\Programs\\Python\\Python311\\DLLs\\_bz2.pyd',
   'EXTENSION'),
  ('select.pyd',
   'C:\\Users\\Уалихан\\AppData\\Local\\Programs\\Python\\Python311\\DLLs\\select.pyd',
   'EXTENSION'),
  ('_socket.pyd',
   'C:\\Users\\Уалихан\\AppData\\Local\\Programs\\Python\\Python311\\DLLs\\_socket.pyd',
   'EXTENSION'),
  ('unicodedata.pyd',
   'C:\\Users\\Уалихан\\AppData\\Local\\Programs\\Python\\Python311\\DLLs\\unicodedata.pyd',
   'EXTENSION'),
  ('_ssl.pyd',
   'C:\\Users\\Уалихан\\AppData\\Local\\Programs\\Python\\Python311\\DLLs\\_ssl.pyd',
   'EXTENSION'),
  ('_queue.pyd',
   'C:\\Users\\Уалихан\\AppData\\Local\\Programs\\Python\\Python311\\DLLs\\_queue.pyd',
   'EXTENSION'),
  ('charset_normalizer\\md__mypyc.cp311-win_amd64.pyd',
   'C:\\Users\\Уалихан\\AppData\\Local\\Programs\\Python\\Python311\\Lib\\site-packages\\charset_normalizer\\md__mypyc.cp311-win_amd64.pyd',
   'EXTENSION'),
  ('charset_normalizer\\md.cp311-win_amd64.pyd',
   'C:\\Users\\Уалихан\\AppData\\Local\\Programs\\Python\\Python311\\Lib\\site-packages\\charset_normalizer\\md.cp311-win_amd64.pyd',
   'EXTENSION'),
  ('_uuid.pyd',
   'C:\\Users\\Уалихан\\AppData\\Local\\Programs\\Python\\Python311\\DLLs\\_uuid.pyd',
   'EXTENSION'),
  ('libcrypto-1_1.dll',
   'C:\\Users\\Уалихан\\AppData\\Local\\Programs\\Python\\Python311\\DLLs\\libcrypto-1_1.dll',
   'BINARY'),
  ('libssl-1_1.dll',
   'C:\\Users\\Уалихан\\AppData\\Local\\Programs\\Python\\Python311\\DLLs\\libssl-1_1.dll',
   'BINARY'),
  ('base_library.zip',
   'C:\\Users\\Уалихан\\Advanced_Python\\new\\uo\\build\\project_python\\base_library.zip',
   'DATA'),
  ('certifi\\py.typed',
   'C:\\Users\\Уалихан\\AppData\\Local\\Programs\\Python\\Python311\\Lib\\site-packages\\certifi\\py.typed',
   'DATA'),
  ('certifi\\cacert.pem',
   'C:\\Users\\Уалихан\\AppData\\Local\\Programs\\Python\\Python311\\Lib\\site-packages\\certifi\\cacert.pem',
   'DATA'),
  ('gitlab\\py.typed',
   'C:\\Users\\Уалихан\\AppData\\Local\\Programs\\Python\\Python311\\Lib\\site-packages\\gitlab\\py.typed',
   'DATA')],
 False,
 False,
 False,
 [],
 None,
 None,
 None)
